<?xml version="1.0" encoding="UTF-8" standalone="no"?>
<svg
   xmlns:dc="http://purl.org/dc/elements/1.1/"
   xmlns:cc="http://creativecommons.org/ns#"
   xmlns:rdf="http://www.w3.org/1999/02/22-rdf-syntax-ns#"
   xmlns:svg="http://www.w3.org/2000/svg"
   xmlns="http://www.w3.org/2000/svg"
   xmlns:xlink="http://www.w3.org/1999/xlink"
   xmlns:sodipodi="http://sodipodi.sourceforge.net/DTD/sodipodi-0.dtd"
   xmlns:inkscape="http://www.inkscape.org/namespaces/inkscape"
   inkscape:version="1.0.2 (e86c870879, 2021-01-15)"
   sodipodi:docname="banner.svg"
   width="512"
   height="128"
   id="svg11300"
   version="1.0"
   style="display:inline;enable-background:new"
   viewBox="0 0 512 128">
  <sodipodi:namedview
     inkscape:current-layer="layer1"
     inkscape:window-maximized="1"
     inkscape:window-y="0"
     inkscape:window-x="0"
     inkscape:cy="27.756771"
     inkscape:cx="98.627255"
     inkscape:zoom="3.9582981"
     showgrid="true"
     id="namedview33"
     inkscape:window-height="1016"
     inkscape:window-width="1920"
     inkscape:pageshadow="2"
     inkscape:pageopacity="0"
     guidetolerance="10"
     gridtolerance="10"
     objecttolerance="10"
     borderopacity="1"
     bordercolor="#666666"
     pagecolor="#ffffff"
     inkscape:document-rotation="0">
    <inkscape:grid
       id="grid882"
       type="xygrid" />
  </sodipodi:namedview>
  <title
     id="title4162">Adwaita Icon Template</title>
  <defs
     id="defs3">
    <linearGradient
       id="linearGradient1948">
      <stop
         style="stop-color:#2d2839;stop-opacity:1;"
         offset="0"
         id="stop1944" />
      <stop
         style="stop-color:#282433;stop-opacity:1"
         offset="1"
         id="stop1946" />
    </linearGradient>
    <linearGradient
       id="linearGradient1020">
      <stop
         style="stop-color:#ffffff;stop-opacity:1;"
         offset="0"
         id="stop1016" />
      <stop
         style="stop-color:#ffffff;stop-opacity:0.09411765"
         offset="1"
         id="stop1018" />
    </linearGradient>
    <linearGradient
       id="linearGradient1001">
      <stop
         style="stop-color:#77767b;stop-opacity:1"
         offset="0"
         id="stop989" />
      <stop
         id="stop991"
         offset="0.05"
         style="stop-color:#c0bfbc;stop-opacity:1" />
      <stop
         style="stop-color:#9a9996;stop-opacity:1"
         offset="0.09999998"
         id="stop993" />
      <stop
         id="stop995"
         offset="0.89999938"
         style="stop-color:#9a9996;stop-opacity:1" />
      <stop
         style="stop-color:#c0bfbc;stop-opacity:1"
         offset="0.94999999"
         id="stop997" />
      <stop
         style="stop-color:#77767b;stop-opacity:1"
         offset="1"
         id="stop999" />
    </linearGradient>
    <linearGradient
       gradientTransform="matrix(0.25,0,0,0.25,0,225)"
       xlink:href="#linearGradient1001"
       id="linearGradient965"
       x1="48"
       y1="44"
       x2="464"
       y2="44"
       gradientUnits="userSpaceOnUse" />
    <radialGradient
       xlink:href="#linearGradient1020"
       id="radialGradient1030"
       cx="63.999996"
       cy="194.19048"
       fx="63.999996"
       fy="194.19048"
       r="44"
       gradientTransform="matrix(-4.7272726,-4.4002765e-7,0,-1.3429054,238.54541,-7.9343775)"
       gradientUnits="userSpaceOnUse" />
    <linearGradient
       xlink:href="#linearGradient1948"
       id="linearGradient1950"
       x1="70.346565"
       y1="244.19327"
       x2="70.346565"
       y2="269.13693"
       gradientUnits="userSpaceOnUse" />
  </defs>
  <metadata
     id="metadata4">
    <rdf:RDF>
      <cc:Work
         rdf:about="">
        <dc:format>image/svg+xml</dc:format>
        <dc:type
           rdf:resource="http://purl.org/dc/dcmitype/StillImage" />
        <dc:title>Adwaita Icon Template</dc:title>
      </cc:Work>
    </rdf:RDF>
  </metadata>
  <g
     id="layer1"
     style="display:inline"
     transform="translate(0,-172)">
    <g
       transform="rotate(-30,420.69873,288.4192)"
       id="g1710"
       style="display:inline;enable-background:new" />
    <g
       id="g1498"
       transform="translate(100,15)">
      <rect
         style="display:inline;fill:#241f31;fill-opacity:1;stroke:none;stroke-width:0.25;stroke-linecap:butt;stroke-linejoin:miter;stroke-miterlimit:4;stroke-dasharray:none;stroke-dashoffset:0;stroke-opacity:1;marker:none;marker-start:none;marker-mid:none;marker-end:none;paint-order:normal;enable-background:new"
         id="rect953"
         width="104"
         height="27.669333"
         x="-88"
         y="245.33066"
         rx="8"
         ry="6.6431389" />
      <rect
         ry="8"
         rx="8"
         y="169"
         x="-88"
         height="96"
         width="104"
         id="rect950"
         style="display:inline;fill:#3d3846;fill-opacity:1;stroke:none;stroke-width:0.25;stroke-linecap:butt;stroke-linejoin:miter;stroke-miterlimit:4;stroke-dasharray:none;stroke-dashoffset:0;stroke-opacity:1;marker:none;marker-start:none;marker-mid:none;marker-end:none;paint-order:normal;enable-background:new" />
      <g
         aria-label="$"
         id="text888"
         style="font-size:35.2913px;line-height:1.25;font-family:Cantarell;-inkscape-font-specification:Cantarell;letter-spacing:-3.88962px;display:inline;fill:#f6f5f4;fill-opacity:1;stroke-width:1.14063;enable-background:new"
         transform="matrix(0.9877331,0,0,1.0605136,-98.696069,-27.655333)">
        <path
           d="m 27.432582,222.75461 c 1.764565,1.55282 4.446704,2.54097 6.740639,2.78801 v 5.15253 h 3.458547 v -5.2584 c 3.917335,-0.67054 5.999522,-3.03505 5.999522,-5.99952 0,-6.42302 -10.269769,-6.1054 -10.269769,-8.61108 0,-1.05874 0.846991,-1.6234 2.4351,-1.6234 1.941021,0 3.246799,0.59995 4.905491,1.76457 l 2.576265,-2.96447 c -1.446944,-1.48224 -3.211509,-2.57627 -5.646609,-2.89389 v -4.58787 h -3.458547 v 4.62316 c -3.564422,0.56466 -5.787774,2.71743 -5.787774,5.75248 0,6.4936 10.30506,5.96423 10.30506,8.9287 0,0.98816 -0.917574,1.58811 -2.611556,1.58811 -2.223352,0 -4.164374,-0.8117 -6.387726,-2.18806 z"
           style="font-style:normal;font-variant:normal;font-weight:bold;font-stretch:normal;font-size:35.2913px;font-family:'Source Code Pro';-inkscape-font-specification:'Source Code Pro Bold';fill:#f6f5f4;fill-opacity:1;stroke-width:1.14063"
           id="path927" />
      </g>
      <rect
         style="display:inline;fill:#f6f5f4;fill-opacity:1;stroke-width:0.955812;enable-background:new"
         id="rect930"
         width="16"
         height="32"
         x="-44"
         y="185"
         rx="0"
         ry="0" />
    </g>
    <text
       xml:space="preserve"
       style="font-size:40px;line-height:1.25;font-family:Cantarell;-inkscape-font-specification:Cantarell"
       x="138.80258"
       y="260.63232"
       id="text868"><tspan
         sodipodi:role="line"
         id="tspan866"
         x="138.80258"
         y="260.63232"
         style="font-style:normal;font-variant:normal;font-weight:normal;font-stretch:normal;font-size:74.6667px;font-family:monospace;-inkscape-font-specification:monospace">Mt</tspan></text>
  </g>
</svg>
